C:\Users\Maciek\Desktop\Biblioteka\src\main\java\moja\biblioteka\controllers\MainController.java
C:\Users\Maciek\Desktop\Biblioteka\src\main\java\moja\biblioteka\Main.java
C:\Users\Maciek\Desktop\Biblioteka\src\main\java\moja\biblioteka\dialogWindow\Dialog.java
C:\Users\Maciek\Desktop\Biblioteka\src\main\java\moja\biblioteka\controllers\TopMenuButtonsController.java
